<mxfile host="Electron" modified="2021-10-13T16:20:33.610Z" agent="5.0 (X11; Linux x86_64) AppleWebKit/537.36 (KHTML, like Gecko) draw.io/14.6.13 Chrome/89.0.4389.128 Electron/12.0.7 Safari/537.36" etag="l3juHlysq71fvmrVafcN" compressed="false" version="14.6.13" type="device">
  <diagram id="uEoJOIatdZ6TuqV-3DC5" name="Page-1">
    <mxGraphModel dx="1422" dy="843" grid="1" gridSize="10" guides="1" tooltips="1" connect="1" arrows="1" fold="1" page="1" pageScale="1" pageWidth="827" pageHeight="1169" math="0" shadow="0">
      <root>
        <mxCell id="0" />
        <mxCell id="1" parent="0" />
        <mxCell id="w00m7SVUwYnCHgUnW6X_-58" value="" style="rounded=1;whiteSpace=wrap;html=1;strokeColor=#b85450;fillColor=#f8cecc;" vertex="1" parent="1">
          <mxGeometry x="330" y="510" width="500" height="330" as="geometry" />
        </mxCell>
        <mxCell id="w00m7SVUwYnCHgUnW6X_-57" value="" style="rounded=1;whiteSpace=wrap;html=1;strokeColor=#d6b656;fillColor=#fff2cc;" vertex="1" parent="1">
          <mxGeometry y="510" width="310" height="330" as="geometry" />
        </mxCell>
        <mxCell id="w00m7SVUwYnCHgUnW6X_-9" value="" style="ellipse;shape=cloud;whiteSpace=wrap;html=1;fillColor=#dae8fc;strokeColor=#6c8ebf;" vertex="1" parent="1">
          <mxGeometry x="100" width="660" height="280" as="geometry" />
        </mxCell>
        <mxCell id="y8KXteIzPCCeruCQ5VRj-1" value="RD-ALL/group/aproject" style="shape=cylinder3;whiteSpace=wrap;html=1;boundedLbl=1;backgroundOutline=1;size=15;fillColor=#fff2cc;strokeColor=#d6b656;" parent="1" vertex="1">
          <mxGeometry x="220" y="80" width="120" height="130" as="geometry" />
        </mxCell>
        <mxCell id="w00m7SVUwYnCHgUnW6X_-1" value="user/aproject" style="shape=cylinder3;whiteSpace=wrap;html=1;boundedLbl=1;backgroundOutline=1;size=15;fillColor=#f8cecc;strokeColor=#b85450;" vertex="1" parent="1">
          <mxGeometry x="500" y="80" width="120" height="130" as="geometry" />
        </mxCell>
        <mxCell id="w00m7SVUwYnCHgUnW6X_-4" value="Fork" style="html=1;shadow=0;dashed=0;align=center;verticalAlign=middle;shape=mxgraph.arrows2.stripedArrow;dy=0.6;dx=40;notch=25;" vertex="1" parent="1">
          <mxGeometry x="380" y="110" width="100" height="70" as="geometry" />
        </mxCell>
        <mxCell id="w00m7SVUwYnCHgUnW6X_-5" value="" style="image;html=1;image=img/lib/clip_art/computers/Laptop_128x128.png" vertex="1" parent="1">
          <mxGeometry x="400" y="330" width="130" height="170" as="geometry" />
        </mxCell>
        <mxCell id="w00m7SVUwYnCHgUnW6X_-7" value="user/aproject" style="shape=cylinder3;whiteSpace=wrap;html=1;boundedLbl=1;backgroundOutline=1;size=15;fillColor=#f8cecc;strokeColor=#b85450;" vertex="1" parent="1">
          <mxGeometry x="470" y="300" width="80" height="80" as="geometry" />
        </mxCell>
        <mxCell id="w00m7SVUwYnCHgUnW6X_-8" value="cache" style="shape=cylinder3;whiteSpace=wrap;html=1;boundedLbl=1;backgroundOutline=1;size=15;fillColor=#fff2cc;strokeColor=#d6b656;" vertex="1" parent="1">
          <mxGeometry x="389" y="330" width="50" height="60" as="geometry" />
        </mxCell>
        <mxCell id="w00m7SVUwYnCHgUnW6X_-10" value="&lt;font style=&quot;font-size: 23px&quot;&gt;&lt;b&gt;Gitlab&lt;/b&gt;&lt;/font&gt;" style="text;html=1;strokeColor=none;fillColor=none;align=center;verticalAlign=middle;whiteSpace=wrap;rounded=0;" vertex="1" parent="1">
          <mxGeometry x="380" y="50" width="80" height="40" as="geometry" />
        </mxCell>
        <mxCell id="w00m7SVUwYnCHgUnW6X_-11" value="" style="shape=flexArrow;endArrow=classic;html=1;fillColor=#1ba1e2;strokeColor=#006EAF;" edge="1" parent="1" source="y8KXteIzPCCeruCQ5VRj-1">
          <mxGeometry width="50" height="50" relative="1" as="geometry">
            <mxPoint x="390" y="300" as="sourcePoint" />
            <mxPoint x="390" y="320" as="targetPoint" />
          </mxGeometry>
        </mxCell>
        <mxCell id="w00m7SVUwYnCHgUnW6X_-12" value="Fetch&lt;br&gt;upstream" style="edgeLabel;html=1;align=center;verticalAlign=middle;resizable=0;points=[];" vertex="1" connectable="0" parent="w00m7SVUwYnCHgUnW6X_-11">
          <mxGeometry x="-0.251" relative="1" as="geometry">
            <mxPoint x="1" as="offset" />
          </mxGeometry>
        </mxCell>
        <mxCell id="w00m7SVUwYnCHgUnW6X_-13" value="" style="shape=flexArrow;endArrow=classic;html=1;fillColor=#1ba1e2;strokeColor=#006EAF;entryX=0.5;entryY=1;entryDx=0;entryDy=0;entryPerimeter=0;" edge="1" parent="1" source="w00m7SVUwYnCHgUnW6X_-7" target="w00m7SVUwYnCHgUnW6X_-1">
          <mxGeometry width="50" height="50" relative="1" as="geometry">
            <mxPoint x="530" y="340" as="sourcePoint" />
            <mxPoint x="380" y="330" as="targetPoint" />
          </mxGeometry>
        </mxCell>
        <mxCell id="w00m7SVUwYnCHgUnW6X_-14" value="push origin" style="edgeLabel;html=1;align=center;verticalAlign=middle;resizable=0;points=[];" vertex="1" connectable="0" parent="w00m7SVUwYnCHgUnW6X_-13">
          <mxGeometry x="-0.251" relative="1" as="geometry">
            <mxPoint x="1" as="offset" />
          </mxGeometry>
        </mxCell>
        <mxCell id="w00m7SVUwYnCHgUnW6X_-16" value="&lt;span style=&quot;background-color: rgb(255 , 0 , 0)&quot;&gt;Rebase&lt;/span&gt;" style="html=1;shadow=0;dashed=0;align=center;verticalAlign=middle;shape=mxgraph.arrows2.uTurnArrow;dy=11;arrowHead=43;dx2=25;fillColor=#a20025;strokeColor=#6F0000;fontColor=#ffffff;" vertex="1" parent="1">
          <mxGeometry x="420" y="300" width="50" height="70" as="geometry" />
        </mxCell>
        <mxCell id="w00m7SVUwYnCHgUnW6X_-30" value="commit A" style="rounded=0;whiteSpace=wrap;html=1;" vertex="1" parent="1">
          <mxGeometry x="140" y="795" width="120" height="25" as="geometry" />
        </mxCell>
        <mxCell id="w00m7SVUwYnCHgUnW6X_-31" value="commit B" style="rounded=0;whiteSpace=wrap;html=1;" vertex="1" parent="1">
          <mxGeometry x="140" y="770" width="120" height="25" as="geometry" />
        </mxCell>
        <mxCell id="w00m7SVUwYnCHgUnW6X_-32" value="commit C" style="rounded=0;whiteSpace=wrap;html=1;" vertex="1" parent="1">
          <mxGeometry x="140" y="745" width="120" height="25" as="geometry" />
        </mxCell>
        <mxCell id="w00m7SVUwYnCHgUnW6X_-33" value="commit D" style="rounded=0;whiteSpace=wrap;html=1;" vertex="1" parent="1">
          <mxGeometry x="140" y="720" width="120" height="25" as="geometry" />
        </mxCell>
        <mxCell id="w00m7SVUwYnCHgUnW6X_-34" value="commit E" style="rounded=0;whiteSpace=wrap;html=1;fillColor=#1ba1e2;strokeColor=#006EAF;fontColor=#ffffff;" vertex="1" parent="1">
          <mxGeometry x="140" y="695" width="120" height="25" as="geometry" />
        </mxCell>
        <mxCell id="w00m7SVUwYnCHgUnW6X_-35" value="commit F" style="rounded=0;whiteSpace=wrap;html=1;fillColor=#1ba1e2;strokeColor=#006EAF;fontColor=#ffffff;" vertex="1" parent="1">
          <mxGeometry x="140" y="670" width="120" height="25" as="geometry" />
        </mxCell>
        <mxCell id="w00m7SVUwYnCHgUnW6X_-36" value="commit G" style="rounded=0;whiteSpace=wrap;html=1;fillColor=#1ba1e2;strokeColor=#006EAF;fontColor=#ffffff;" vertex="1" parent="1">
          <mxGeometry x="140" y="645" width="120" height="25" as="geometry" />
        </mxCell>
        <mxCell id="w00m7SVUwYnCHgUnW6X_-37" value="commit H" style="rounded=0;whiteSpace=wrap;html=1;fillColor=#1ba1e2;strokeColor=#006EAF;fontColor=#ffffff;" vertex="1" parent="1">
          <mxGeometry x="140" y="620" width="120" height="25" as="geometry" />
        </mxCell>
        <mxCell id="w00m7SVUwYnCHgUnW6X_-38" value="commit A" style="rounded=0;whiteSpace=wrap;html=1;" vertex="1" parent="1">
          <mxGeometry x="390" y="795" width="120" height="25" as="geometry" />
        </mxCell>
        <mxCell id="w00m7SVUwYnCHgUnW6X_-39" value="commit B" style="rounded=0;whiteSpace=wrap;html=1;" vertex="1" parent="1">
          <mxGeometry x="390" y="770" width="120" height="25" as="geometry" />
        </mxCell>
        <mxCell id="w00m7SVUwYnCHgUnW6X_-40" value="commit C" style="rounded=0;whiteSpace=wrap;html=1;" vertex="1" parent="1">
          <mxGeometry x="390" y="745" width="120" height="25" as="geometry" />
        </mxCell>
        <mxCell id="w00m7SVUwYnCHgUnW6X_-41" value="commit D" style="rounded=0;whiteSpace=wrap;html=1;" vertex="1" parent="1">
          <mxGeometry x="390" y="720" width="120" height="25" as="geometry" />
        </mxCell>
        <mxCell id="w00m7SVUwYnCHgUnW6X_-44" value="commit A" style="rounded=0;whiteSpace=wrap;html=1;" vertex="1" parent="1">
          <mxGeometry x="560" y="795" width="120" height="25" as="geometry" />
        </mxCell>
        <mxCell id="w00m7SVUwYnCHgUnW6X_-45" value="commit B" style="rounded=0;whiteSpace=wrap;html=1;" vertex="1" parent="1">
          <mxGeometry x="560" y="770" width="120" height="25" as="geometry" />
        </mxCell>
        <mxCell id="w00m7SVUwYnCHgUnW6X_-46" value="commit C" style="rounded=0;whiteSpace=wrap;html=1;" vertex="1" parent="1">
          <mxGeometry x="560" y="745" width="120" height="25" as="geometry" />
        </mxCell>
        <mxCell id="w00m7SVUwYnCHgUnW6X_-47" value="commit D" style="rounded=0;whiteSpace=wrap;html=1;" vertex="1" parent="1">
          <mxGeometry x="560" y="720" width="120" height="25" as="geometry" />
        </mxCell>
        <mxCell id="w00m7SVUwYnCHgUnW6X_-48" value="commit E" style="rounded=0;whiteSpace=wrap;html=1;fillColor=#1ba1e2;strokeColor=#006EAF;fontColor=#ffffff;" vertex="1" parent="1">
          <mxGeometry x="560" y="695" width="120" height="25" as="geometry" />
        </mxCell>
        <mxCell id="w00m7SVUwYnCHgUnW6X_-49" value="commit F" style="rounded=0;whiteSpace=wrap;html=1;fillColor=#1ba1e2;strokeColor=#006EAF;fontColor=#ffffff;" vertex="1" parent="1">
          <mxGeometry x="560" y="670" width="120" height="25" as="geometry" />
        </mxCell>
        <mxCell id="w00m7SVUwYnCHgUnW6X_-50" value="commit G" style="rounded=0;whiteSpace=wrap;html=1;fillColor=#1ba1e2;strokeColor=#006EAF;fontColor=#ffffff;" vertex="1" parent="1">
          <mxGeometry x="560" y="645" width="120" height="25" as="geometry" />
        </mxCell>
        <mxCell id="w00m7SVUwYnCHgUnW6X_-51" value="commit H" style="rounded=0;whiteSpace=wrap;html=1;fillColor=#1ba1e2;strokeColor=#006EAF;fontColor=#ffffff;" vertex="1" parent="1">
          <mxGeometry x="560" y="620" width="120" height="25" as="geometry" />
        </mxCell>
        <mxCell id="w00m7SVUwYnCHgUnW6X_-52" value="your commit 1" style="rounded=0;whiteSpace=wrap;html=1;fillColor=#f8cecc;strokeColor=#b85450;" vertex="1" parent="1">
          <mxGeometry x="560" y="595" width="120" height="25" as="geometry" />
        </mxCell>
        <mxCell id="w00m7SVUwYnCHgUnW6X_-53" value="your commit 2" style="rounded=0;whiteSpace=wrap;html=1;fillColor=#f8cecc;strokeColor=#b85450;" vertex="1" parent="1">
          <mxGeometry x="560" y="570" width="120" height="25" as="geometry" />
        </mxCell>
        <mxCell id="w00m7SVUwYnCHgUnW6X_-54" value="now" style="rounded=0;whiteSpace=wrap;html=1;fillColor=#f5f5f5;strokeColor=#666666;fontColor=#333333;" vertex="1" parent="1">
          <mxGeometry x="140" y="530" width="120" height="25" as="geometry" />
        </mxCell>
        <mxCell id="w00m7SVUwYnCHgUnW6X_-55" value="before" style="rounded=0;whiteSpace=wrap;html=1;fillColor=#f5f5f5;strokeColor=#666666;fontColor=#333333;" vertex="1" parent="1">
          <mxGeometry x="390" y="530" width="120" height="25" as="geometry" />
        </mxCell>
        <mxCell id="w00m7SVUwYnCHgUnW6X_-56" value="after rebase" style="rounded=0;whiteSpace=wrap;html=1;fillColor=#f5f5f5;strokeColor=#666666;fontColor=#333333;" vertex="1" parent="1">
          <mxGeometry x="560" y="530" width="120" height="25" as="geometry" />
        </mxCell>
        <mxCell id="w00m7SVUwYnCHgUnW6X_-59" value="Developer&#39;s PC" style="text;html=1;strokeColor=none;fillColor=none;align=center;verticalAlign=middle;whiteSpace=wrap;rounded=0;" vertex="1" parent="1">
          <mxGeometry x="425" y="460" width="125" height="20" as="geometry" />
        </mxCell>
        <mxCell id="w00m7SVUwYnCHgUnW6X_-60" value="RD-ALL/group/aproject" style="text;html=1;strokeColor=none;fillColor=none;align=center;verticalAlign=middle;whiteSpace=wrap;rounded=0;" vertex="1" parent="1">
          <mxGeometry x="80" y="510" width="160" height="20" as="geometry" />
        </mxCell>
        <mxCell id="w00m7SVUwYnCHgUnW6X_-61" value="user/aproject" style="text;html=1;strokeColor=none;fillColor=none;align=center;verticalAlign=middle;whiteSpace=wrap;rounded=0;" vertex="1" parent="1">
          <mxGeometry x="439" y="510" width="160" height="20" as="geometry" />
        </mxCell>
        <mxCell id="w00m7SVUwYnCHgUnW6X_-62" value="" style="shape=curlyBracket;whiteSpace=wrap;html=1;rounded=1;strokeColor=#001DBC;fillColor=#0050ef;fontColor=#ffffff;" vertex="1" parent="1">
          <mxGeometry x="110" y="620" width="20" height="100" as="geometry" />
        </mxCell>
        <mxCell id="w00m7SVUwYnCHgUnW6X_-63" value="New commits to aproject from other developers" style="text;html=1;strokeColor=#001DBC;fillColor=#0050ef;align=center;verticalAlign=middle;whiteSpace=wrap;rounded=0;fontColor=#ffffff;" vertex="1" parent="1">
          <mxGeometry x="10" y="625" width="90" height="95" as="geometry" />
        </mxCell>
        <mxCell id="w00m7SVUwYnCHgUnW6X_-64" value="" style="endArrow=classic;html=1;fillColor=#0050ef;strokeColor=#001DBC;exitX=1;exitY=0.5;exitDx=0;exitDy=0;entryX=0;entryY=0.5;entryDx=0;entryDy=0;" edge="1" parent="1" source="w00m7SVUwYnCHgUnW6X_-34" target="w00m7SVUwYnCHgUnW6X_-48">
          <mxGeometry width="50" height="50" relative="1" as="geometry">
            <mxPoint x="390" y="560" as="sourcePoint" />
            <mxPoint x="440" y="510" as="targetPoint" />
          </mxGeometry>
        </mxCell>
        <mxCell id="w00m7SVUwYnCHgUnW6X_-66" value="" style="edgeStyle=elbowEdgeStyle;elbow=horizontal;endArrow=classic;html=1;fillColor=#a20025;strokeColor=#6F0000;exitX=1;exitY=0.5;exitDx=0;exitDy=0;entryX=0;entryY=0.5;entryDx=0;entryDy=0;" edge="1" parent="1" source="w00m7SVUwYnCHgUnW6X_-43" target="w00m7SVUwYnCHgUnW6X_-53">
          <mxGeometry width="50" height="50" relative="1" as="geometry">
            <mxPoint x="510" y="657.5" as="sourcePoint" />
            <mxPoint x="560" y="607.5" as="targetPoint" />
          </mxGeometry>
        </mxCell>
        <mxCell id="w00m7SVUwYnCHgUnW6X_-67" value="" style="shape=curlyBracket;whiteSpace=wrap;html=1;rounded=1;flipH=1;strokeColor=#6F0000;fillColor=#a20025;fontColor=#ffffff;" vertex="1" parent="1">
          <mxGeometry x="700" y="570" width="20" height="50" as="geometry" />
        </mxCell>
        <mxCell id="w00m7SVUwYnCHgUnW6X_-68" value="Your new commits layered on top of other developers new commits" style="text;html=1;strokeColor=#6F0000;fillColor=#a20025;align=center;verticalAlign=middle;whiteSpace=wrap;rounded=0;fontColor=#ffffff;" vertex="1" parent="1">
          <mxGeometry x="720" y="547.5" width="90" height="95" as="geometry" />
        </mxCell>
        <mxCell id="w00m7SVUwYnCHgUnW6X_-43" value="your commit 2" style="rounded=0;whiteSpace=wrap;html=1;fillColor=#f8cecc;strokeColor=#b85450;" vertex="1" parent="1">
          <mxGeometry x="390" y="670" width="120" height="25" as="geometry" />
        </mxCell>
        <mxCell id="w00m7SVUwYnCHgUnW6X_-42" value="your commit 1" style="rounded=0;whiteSpace=wrap;html=1;fillColor=#f8cecc;strokeColor=#b85450;" vertex="1" parent="1">
          <mxGeometry x="390" y="695" width="120" height="25" as="geometry" />
        </mxCell>
      </root>
    </mxGraphModel>
  </diagram>
</mxfile>
