<mxfile host="Electron" modified="2021-09-29T15:02:31.157Z" agent="5.0 (X11; Linux x86_64) AppleWebKit/537.36 (KHTML, like Gecko) draw.io/14.6.13 Chrome/89.0.4389.128 Electron/12.0.7 Safari/537.36" etag="MhxWpcYWXqJrEqQCrJ5E" compressed="false" version="14.6.13" type="device">
  <diagram id="zmYP1_9cdQTn50U3Y0UP" name="Page-1">
    <mxGraphModel dx="2249" dy="843" grid="1" gridSize="10" guides="1" tooltips="1" connect="1" arrows="1" fold="1" page="1" pageScale="1" pageWidth="827" pageHeight="1169" math="0" shadow="0">
      <root>
        <mxCell id="0" />
        <mxCell id="1" parent="0" />
        <mxCell id="kr3XVZ0pvDQRJSDVA0Ld-7" value="Access Products" style="swimlane;fillColor=#dae8fc;strokeColor=#6c8ebf;" parent="1" vertex="1">
          <mxGeometry x="10" y="550" width="520" height="200" as="geometry" />
        </mxCell>
        <mxCell id="kr3XVZ0pvDQRJSDVA0Ld-8" value="One2540" style="rounded=1;whiteSpace=wrap;html=1;fillColor=#dae8fc;strokeColor=#6c8ebf;" parent="kr3XVZ0pvDQRJSDVA0Ld-7" vertex="1">
          <mxGeometry x="205" y="110" width="120" height="60" as="geometry" />
        </mxCell>
        <mxCell id="kr3XVZ0pvDQRJSDVA0Ld-14" value="This page deals with product characteristics or specificities. Software used on those products is describe in the Software section" style="text;html=1;strokeColor=none;fillColor=none;align=center;verticalAlign=middle;whiteSpace=wrap;rounded=0;" parent="kr3XVZ0pvDQRJSDVA0Ld-7" vertex="1">
          <mxGeometry x="110" y="50" width="310" height="20" as="geometry" />
        </mxCell>
        <mxCell id="kr3XVZ0pvDQRJSDVA0Ld-9" value="one2515" style="rounded=1;whiteSpace=wrap;html=1;fillColor=#dae8fc;strokeColor=#6c8ebf;" parent="kr3XVZ0pvDQRJSDVA0Ld-7" vertex="1">
          <mxGeometry x="40" y="110" width="120" height="60" as="geometry" />
        </mxCell>
        <mxCell id="-zzUr30j8Fp2j12i7R0f-6" value="vSBC" style="rounded=1;whiteSpace=wrap;html=1;fillColor=#dae8fc;strokeColor=#6c8ebf;" parent="kr3XVZ0pvDQRJSDVA0Ld-7" vertex="1">
          <mxGeometry x="360" y="110" width="120" height="60" as="geometry" />
        </mxCell>
        <mxCell id="kr3XVZ0pvDQRJSDVA0Ld-15" value="One2540" style="swimlane;fillColor=#dae8fc;strokeColor=#6c8ebf;" parent="1" vertex="1">
          <mxGeometry x="-80" y="880" width="650" height="240" as="geometry" />
        </mxCell>
        <mxCell id="kr3XVZ0pvDQRJSDVA0Ld-16" value="Hardware" style="rounded=1;whiteSpace=wrap;html=1;fillColor=#dae8fc;strokeColor=#6c8ebf;" parent="kr3XVZ0pvDQRJSDVA0Ld-15" vertex="1">
          <mxGeometry x="500" y="50" width="120" height="60" as="geometry" />
        </mxCell>
        <mxCell id="kr3XVZ0pvDQRJSDVA0Ld-17" value="Software specificities/sizing" style="rounded=1;whiteSpace=wrap;html=1;fillColor=#dae8fc;strokeColor=#6c8ebf;" parent="kr3XVZ0pvDQRJSDVA0Ld-15" vertex="1">
          <mxGeometry x="200" y="50" width="120" height="60" as="geometry" />
        </mxCell>
        <mxCell id="kr3XVZ0pvDQRJSDVA0Ld-18" value="Product performance tests" style="rounded=1;whiteSpace=wrap;html=1;fillColor=#dae8fc;strokeColor=#6c8ebf;" parent="kr3XVZ0pvDQRJSDVA0Ld-15" vertex="1">
          <mxGeometry x="350" y="50" width="120" height="60" as="geometry" />
        </mxCell>
        <mxCell id="kr3XVZ0pvDQRJSDVA0Ld-20" value="Certifications" style="rounded=1;whiteSpace=wrap;html=1;fillColor=#dae8fc;strokeColor=#6c8ebf;" parent="kr3XVZ0pvDQRJSDVA0Ld-15" vertex="1">
          <mxGeometry x="40" y="140" width="120" height="60" as="geometry" />
        </mxCell>
        <mxCell id="kr3XVZ0pvDQRJSDVA0Ld-21" value="Related Projects documents" style="rounded=1;whiteSpace=wrap;html=1;fillColor=#dae8fc;strokeColor=#6c8ebf;" parent="kr3XVZ0pvDQRJSDVA0Ld-15" vertex="1">
          <mxGeometry x="200" y="140" width="120" height="60" as="geometry" />
        </mxCell>
        <mxCell id="VX1eUZ2akQ1KbiDvy0Xz-2" value="Software plateforme" style="rounded=1;whiteSpace=wrap;html=1;fillColor=#dae8fc;strokeColor=#6c8ebf;" parent="kr3XVZ0pvDQRJSDVA0Ld-15" vertex="1">
          <mxGeometry x="350" y="139" width="120" height="60" as="geometry" />
        </mxCell>
        <mxCell id="VX1eUZ2akQ1KbiDvy0Xz-15" value="Project documents" style="rounded=1;whiteSpace=wrap;html=1;fillColor=#dae8fc;strokeColor=#6c8ebf;" parent="kr3XVZ0pvDQRJSDVA0Ld-15" vertex="1">
          <mxGeometry x="40" y="50" width="120" height="60" as="geometry" />
        </mxCell>
        <mxCell id="kr3XVZ0pvDQRJSDVA0Ld-22" value="" style="endArrow=classic;html=1;exitX=0.5;exitY=1;exitDx=0;exitDy=0;entryX=0.5;entryY=0;entryDx=0;entryDy=0;" parent="1" source="kr3XVZ0pvDQRJSDVA0Ld-8" target="kr3XVZ0pvDQRJSDVA0Ld-15" edge="1">
          <mxGeometry width="50" height="50" relative="1" as="geometry">
            <mxPoint x="27" y="1020" as="sourcePoint" />
            <mxPoint x="290" y="1340" as="targetPoint" />
          </mxGeometry>
        </mxCell>
        <mxCell id="kr3XVZ0pvDQRJSDVA0Ld-34" value="OneOs6" style="swimlane;fillColor=#f8cecc;strokeColor=#b85450;" parent="1" vertex="1">
          <mxGeometry x="80" y="1210" width="790" height="240" as="geometry" />
        </mxCell>
        <mxCell id="kr3XVZ0pvDQRJSDVA0Ld-35" value="High Level Design" style="rounded=1;whiteSpace=wrap;html=1;fillColor=#f8cecc;strokeColor=#b85450;" parent="kr3XVZ0pvDQRJSDVA0Ld-34" vertex="1">
          <mxGeometry x="40" y="50" width="120" height="60" as="geometry" />
        </mxCell>
        <mxCell id="kr3XVZ0pvDQRJSDVA0Ld-36" value="Subsystems&lt;br&gt;Low level design" style="rounded=1;whiteSpace=wrap;html=1;fillColor=#f8cecc;strokeColor=#b85450;" parent="kr3XVZ0pvDQRJSDVA0Ld-34" vertex="1">
          <mxGeometry x="200" y="50" width="120" height="60" as="geometry" />
        </mxCell>
        <mxCell id="kr3XVZ0pvDQRJSDVA0Ld-37" value="Glabal MIB/datamodles" style="rounded=1;whiteSpace=wrap;html=1;fillColor=#f8cecc;strokeColor=#b85450;" parent="kr3XVZ0pvDQRJSDVA0Ld-34" vertex="1">
          <mxGeometry x="350" y="50" width="120" height="60" as="geometry" />
        </mxCell>
        <mxCell id="kr3XVZ0pvDQRJSDVA0Ld-38" value="Test results" style="rounded=1;whiteSpace=wrap;html=1;fillColor=#f8cecc;strokeColor=#b85450;" parent="kr3XVZ0pvDQRJSDVA0Ld-34" vertex="1">
          <mxGeometry x="500" y="50" width="120" height="60" as="geometry" />
        </mxCell>
        <mxCell id="kr3XVZ0pvDQRJSDVA0Ld-39" value="DevSecOps statistics/reports" style="rounded=1;whiteSpace=wrap;html=1;fillColor=#f8cecc;strokeColor=#b85450;" parent="kr3XVZ0pvDQRJSDVA0Ld-34" vertex="1">
          <mxGeometry x="40" y="140" width="120" height="60" as="geometry" />
        </mxCell>
        <mxCell id="kr3XVZ0pvDQRJSDVA0Ld-40" value="Quality reports" style="rounded=1;whiteSpace=wrap;html=1;fillColor=#f8cecc;strokeColor=#b85450;" parent="kr3XVZ0pvDQRJSDVA0Ld-34" vertex="1">
          <mxGeometry x="200" y="140" width="120" height="60" as="geometry" />
        </mxCell>
        <mxCell id="kr3XVZ0pvDQRJSDVA0Ld-66" value="Build tools and SDK" style="rounded=1;whiteSpace=wrap;html=1;fillColor=#f8cecc;strokeColor=#b85450;" parent="kr3XVZ0pvDQRJSDVA0Ld-34" vertex="1">
          <mxGeometry x="350" y="140" width="120" height="60" as="geometry" />
        </mxCell>
        <mxCell id="U0_4rhaIP4J-3OT_0IaF-1" value="releases&lt;br&gt;documentaion" style="rounded=1;whiteSpace=wrap;html=1;fillColor=#f8cecc;strokeColor=#b85450;" parent="kr3XVZ0pvDQRJSDVA0Ld-34" vertex="1">
          <mxGeometry x="500" y="140" width="120" height="60" as="geometry" />
        </mxCell>
        <mxCell id="VX1eUZ2akQ1KbiDvy0Xz-16" value="Project documents" style="rounded=1;whiteSpace=wrap;html=1;fillColor=#f8cecc;strokeColor=#b85450;" parent="kr3XVZ0pvDQRJSDVA0Ld-34" vertex="1">
          <mxGeometry x="650" y="50" width="120" height="60" as="geometry" />
        </mxCell>
        <mxCell id="kr3XVZ0pvDQRJSDVA0Ld-43" value="Ekipedia internal documentation - Solutions" style="swimlane;fillColor=#d5e8d4;strokeColor=#82b366;" parent="1" vertex="1">
          <mxGeometry x="230" y="200" width="800" height="280" as="geometry" />
        </mxCell>
        <mxCell id="kr3XVZ0pvDQRJSDVA0Ld-44" value="SDWAN" style="rounded=1;whiteSpace=wrap;html=1;fillColor=#d5e8d4;strokeColor=#82b366;" parent="kr3XVZ0pvDQRJSDVA0Ld-43" vertex="1">
          <mxGeometry x="500" y="50" width="120" height="60" as="geometry" />
        </mxCell>
        <mxCell id="kr3XVZ0pvDQRJSDVA0Ld-46" value="Ekinops360" style="rounded=1;whiteSpace=wrap;html=1;fillColor=#d5e8d4;strokeColor=#82b366;" parent="kr3XVZ0pvDQRJSDVA0Ld-43" vertex="1">
          <mxGeometry x="340" y="50" width="120" height="60" as="geometry" />
        </mxCell>
        <mxCell id="kr3XVZ0pvDQRJSDVA0Ld-50" value="OVP/DS/OneManage" style="rounded=1;whiteSpace=wrap;html=1;fillColor=#d5e8d4;strokeColor=#82b366;" parent="kr3XVZ0pvDQRJSDVA0Ld-43" vertex="1">
          <mxGeometry x="180" y="50" width="120" height="60" as="geometry" />
        </mxCell>
        <mxCell id="-zzUr30j8Fp2j12i7R0f-5" value="Access" style="rounded=1;whiteSpace=wrap;html=1;fillColor=#d5e8d4;strokeColor=#82b366;" parent="kr3XVZ0pvDQRJSDVA0Ld-43" vertex="1">
          <mxGeometry x="20" y="50" width="120" height="60" as="geometry" />
        </mxCell>
        <mxCell id="VX1eUZ2akQ1KbiDvy0Xz-23" value="DevSecOps" style="rounded=1;whiteSpace=wrap;html=1;fillColor=#d5e8d4;strokeColor=#82b366;" parent="kr3XVZ0pvDQRJSDVA0Ld-43" vertex="1">
          <mxGeometry x="660" y="50" width="120" height="60" as="geometry" />
        </mxCell>
        <mxCell id="-zzUr30j8Fp2j12i7R0f-7" value="Projects 2540" style="swimlane;fillColor=#fff2cc;strokeColor=#d6b656;startSize=23;" parent="1" vertex="1">
          <mxGeometry x="-100" y="1600" width="520" height="200" as="geometry" />
        </mxCell>
        <mxCell id="-zzUr30j8Fp2j12i7R0f-8" value="PRQ" style="rounded=1;whiteSpace=wrap;html=1;fillColor=#fff2cc;strokeColor=#d6b656;" parent="-zzUr30j8Fp2j12i7R0f-7" vertex="1">
          <mxGeometry x="205" y="110" width="120" height="60" as="geometry" />
        </mxCell>
        <mxCell id="-zzUr30j8Fp2j12i7R0f-10" value="OPR" style="rounded=1;whiteSpace=wrap;html=1;fillColor=#fff2cc;strokeColor=#d6b656;" parent="-zzUr30j8Fp2j12i7R0f-7" vertex="1">
          <mxGeometry x="40" y="110" width="120" height="60" as="geometry" />
        </mxCell>
        <mxCell id="-zzUr30j8Fp2j12i7R0f-11" value="Meeting notes" style="rounded=1;whiteSpace=wrap;html=1;fillColor=#fff2cc;strokeColor=#d6b656;" parent="-zzUr30j8Fp2j12i7R0f-7" vertex="1">
          <mxGeometry x="360" y="110" width="120" height="60" as="geometry" />
        </mxCell>
        <mxCell id="VX1eUZ2akQ1KbiDvy0Xz-1" value="" style="endArrow=classic;html=1;exitX=0.5;exitY=1;exitDx=0;exitDy=0;entryX=0.5;entryY=0;entryDx=0;entryDy=0;" parent="1" source="-zzUr30j8Fp2j12i7R0f-5" target="kr3XVZ0pvDQRJSDVA0Ld-7" edge="1">
          <mxGeometry width="50" height="50" relative="1" as="geometry">
            <mxPoint x="370" y="480" as="sourcePoint" />
            <mxPoint x="490" y="520" as="targetPoint" />
          </mxGeometry>
        </mxCell>
        <mxCell id="VX1eUZ2akQ1KbiDvy0Xz-3" value="vSBC" style="swimlane;fillColor=#dae8fc;strokeColor=#6c8ebf;" parent="1" vertex="1">
          <mxGeometry x="620" y="880" width="500" height="240" as="geometry" />
        </mxCell>
        <mxCell id="VX1eUZ2akQ1KbiDvy0Xz-4" value="Hardware" style="rounded=1;whiteSpace=wrap;html=1;fillColor=#dae8fc;strokeColor=#6c8ebf;" parent="VX1eUZ2akQ1KbiDvy0Xz-3" vertex="1">
          <mxGeometry x="40" y="50" width="120" height="60" as="geometry" />
        </mxCell>
        <mxCell id="VX1eUZ2akQ1KbiDvy0Xz-5" value="Software specificities/sizing" style="rounded=1;whiteSpace=wrap;html=1;fillColor=#dae8fc;strokeColor=#6c8ebf;" parent="VX1eUZ2akQ1KbiDvy0Xz-3" vertex="1">
          <mxGeometry x="200" y="50" width="120" height="60" as="geometry" />
        </mxCell>
        <mxCell id="VX1eUZ2akQ1KbiDvy0Xz-6" value="Product performance tests" style="rounded=1;whiteSpace=wrap;html=1;fillColor=#dae8fc;strokeColor=#6c8ebf;" parent="VX1eUZ2akQ1KbiDvy0Xz-3" vertex="1">
          <mxGeometry x="350" y="50" width="120" height="60" as="geometry" />
        </mxCell>
        <mxCell id="VX1eUZ2akQ1KbiDvy0Xz-7" value="Certifications" style="rounded=1;whiteSpace=wrap;html=1;fillColor=#dae8fc;strokeColor=#6c8ebf;" parent="VX1eUZ2akQ1KbiDvy0Xz-3" vertex="1">
          <mxGeometry x="40" y="140" width="120" height="60" as="geometry" />
        </mxCell>
        <mxCell id="VX1eUZ2akQ1KbiDvy0Xz-8" value="Related Projects documents" style="rounded=1;whiteSpace=wrap;html=1;fillColor=#dae8fc;strokeColor=#6c8ebf;" parent="VX1eUZ2akQ1KbiDvy0Xz-3" vertex="1">
          <mxGeometry x="200" y="140" width="120" height="60" as="geometry" />
        </mxCell>
        <mxCell id="VX1eUZ2akQ1KbiDvy0Xz-9" value="Software plateforme" style="rounded=1;whiteSpace=wrap;html=1;fillColor=#dae8fc;strokeColor=#6c8ebf;" parent="VX1eUZ2akQ1KbiDvy0Xz-3" vertex="1">
          <mxGeometry x="350" y="139" width="120" height="60" as="geometry" />
        </mxCell>
        <mxCell id="VX1eUZ2akQ1KbiDvy0Xz-10" value="" style="endArrow=classic;html=1;exitX=0.5;exitY=1;exitDx=0;exitDy=0;entryX=0.5;entryY=0;entryDx=0;entryDy=0;" parent="1" source="VX1eUZ2akQ1KbiDvy0Xz-2" target="kr3XVZ0pvDQRJSDVA0Ld-34" edge="1">
          <mxGeometry width="50" height="50" relative="1" as="geometry">
            <mxPoint x="340" y="1100" as="sourcePoint" />
            <mxPoint x="390" y="1050" as="targetPoint" />
          </mxGeometry>
        </mxCell>
        <mxCell id="VX1eUZ2akQ1KbiDvy0Xz-12" value="" style="endArrow=classic;html=1;exitX=0.5;exitY=1;exitDx=0;exitDy=0;entryX=0.5;entryY=0;entryDx=0;entryDy=0;" parent="1" source="VX1eUZ2akQ1KbiDvy0Xz-9" target="kr3XVZ0pvDQRJSDVA0Ld-34" edge="1">
          <mxGeometry width="50" height="50" relative="1" as="geometry">
            <mxPoint x="500" y="1179" as="sourcePoint" />
            <mxPoint x="515" y="1300" as="targetPoint" />
          </mxGeometry>
        </mxCell>
        <mxCell id="VX1eUZ2akQ1KbiDvy0Xz-17" value="" style="endArrow=classic;html=1;exitX=0.5;exitY=1;exitDx=0;exitDy=0;entryX=0.5;entryY=0;entryDx=0;entryDy=0;" parent="1" source="VX1eUZ2akQ1KbiDvy0Xz-15" target="-zzUr30j8Fp2j12i7R0f-7" edge="1">
          <mxGeometry width="50" height="50" relative="1" as="geometry">
            <mxPoint x="340" y="1480" as="sourcePoint" />
            <mxPoint x="390" y="1430" as="targetPoint" />
          </mxGeometry>
        </mxCell>
        <mxCell id="VX1eUZ2akQ1KbiDvy0Xz-18" value="Projects OneOs6 Feature 2021" style="swimlane;fillColor=#fff2cc;strokeColor=#d6b656;startSize=23;" parent="1" vertex="1">
          <mxGeometry x="470" y="1600" width="520" height="200" as="geometry" />
        </mxCell>
        <mxCell id="VX1eUZ2akQ1KbiDvy0Xz-19" value="PRQ" style="rounded=1;whiteSpace=wrap;html=1;fillColor=#fff2cc;strokeColor=#d6b656;" parent="VX1eUZ2akQ1KbiDvy0Xz-18" vertex="1">
          <mxGeometry x="205" y="110" width="120" height="60" as="geometry" />
        </mxCell>
        <mxCell id="VX1eUZ2akQ1KbiDvy0Xz-20" value="OPR" style="rounded=1;whiteSpace=wrap;html=1;fillColor=#fff2cc;strokeColor=#d6b656;" parent="VX1eUZ2akQ1KbiDvy0Xz-18" vertex="1">
          <mxGeometry x="40" y="110" width="120" height="60" as="geometry" />
        </mxCell>
        <mxCell id="VX1eUZ2akQ1KbiDvy0Xz-21" value="Meeting notes" style="rounded=1;whiteSpace=wrap;html=1;fillColor=#fff2cc;strokeColor=#d6b656;" parent="VX1eUZ2akQ1KbiDvy0Xz-18" vertex="1">
          <mxGeometry x="360" y="110" width="120" height="60" as="geometry" />
        </mxCell>
        <mxCell id="VX1eUZ2akQ1KbiDvy0Xz-22" value="" style="endArrow=classic;html=1;exitX=0.45;exitY=1.017;exitDx=0;exitDy=0;exitPerimeter=0;entryX=0.5;entryY=0;entryDx=0;entryDy=0;" parent="1" source="VX1eUZ2akQ1KbiDvy0Xz-16" target="VX1eUZ2akQ1KbiDvy0Xz-18" edge="1">
          <mxGeometry width="50" height="50" relative="1" as="geometry">
            <mxPoint x="340" y="1640" as="sourcePoint" />
            <mxPoint x="390" y="1590" as="targetPoint" />
          </mxGeometry>
        </mxCell>
        <mxCell id="VX1eUZ2akQ1KbiDvy0Xz-24" value="" style="endArrow=classic;html=1;exitX=0.5;exitY=1;exitDx=0;exitDy=0;entryX=0.518;entryY=0;entryDx=0;entryDy=0;entryPerimeter=0;" parent="1" source="-zzUr30j8Fp2j12i7R0f-6" target="VX1eUZ2akQ1KbiDvy0Xz-3" edge="1">
          <mxGeometry width="50" height="50" relative="1" as="geometry">
            <mxPoint x="520" y="890" as="sourcePoint" />
            <mxPoint x="570" y="840" as="targetPoint" />
          </mxGeometry>
        </mxCell>
        <mxCell id="VX1eUZ2akQ1KbiDvy0Xz-25" value="&lt;font style=&quot;font-size: 36px&quot;&gt;Solutions&lt;/font&gt;" style="rounded=1;whiteSpace=wrap;html=1;fillColor=#d5e8d4;strokeColor=#82b366;" parent="1" vertex="1">
          <mxGeometry x="-500" y="190" width="207" height="330" as="geometry" />
        </mxCell>
        <mxCell id="VX1eUZ2akQ1KbiDvy0Xz-26" value="&lt;font style=&quot;font-size: 36px&quot;&gt;Products&lt;/font&gt;" style="rounded=1;whiteSpace=wrap;html=1;fillColor=#dae8fc;strokeColor=#6c8ebf;" parent="1" vertex="1">
          <mxGeometry x="-500" y="520" width="207" height="650" as="geometry" />
        </mxCell>
        <mxCell id="VX1eUZ2akQ1KbiDvy0Xz-27" value="&lt;font style=&quot;font-size: 36px&quot;&gt;Platformes&lt;/font&gt;" style="rounded=1;whiteSpace=wrap;html=1;fillColor=#f8cecc;strokeColor=#b85450;" parent="1" vertex="1">
          <mxGeometry x="-500" y="1169" width="207" height="411" as="geometry" />
        </mxCell>
        <mxCell id="VX1eUZ2akQ1KbiDvy0Xz-28" value="&lt;font style=&quot;font-size: 36px&quot;&gt;Projects&lt;/font&gt;" style="rounded=1;whiteSpace=wrap;html=1;fillColor=#fff2cc;strokeColor=#d6b656;" parent="1" vertex="1">
          <mxGeometry x="-500" y="1580" width="207" height="250" as="geometry" />
        </mxCell>
      </root>
    </mxGraphModel>
  </diagram>
</mxfile>
